Text_compiler_Nicar_26_Wells.knit
…
bigrams <- articles_df |> 
  select(full_text) |> 
  mutate(text = str_squish(full_text)) |> 
  mutate(text = tolower(text)) |>  
  mutate(text = str_replace_all(text, "- ", "")) |> 
  unnest_tokens(bigram, text, token="ngrams", n=2 ) |> 
  separate(bigram, c("word1", "word2"), sep = " ") |> 
  filter(!word1 %in% stop_words$word) |>
  filter(!word2 %in% stop_words$word) |> 
  count(word1, word2, sort = TRUE) |> 
  filter(!is.na(word1))

bigrams

## # A tibble: 12,323 × 3
##    word1     word2           n
##    <chr>     <chr>       <int>
##  1 raymond   moley          68
##  2 white     house          68
##  3 jonathan  alter          47
##  4 bob       schieffer      45
##  5 isabella  rossellini     42
##  6 peter     bogdanovich    39
##  7 social    security       33
##  8 hundred   days           26
##  9 inaugural address        25
## 10 supreme   court          25
## # ℹ 12,313 more rows
…
