nicar_text_analysis_2026
…
baltimore <- read_csv ("assets/bmore.csv") 

Quick view of any entry by row

wrapped_text <- strwrap(as.character(baltimore$text[5]), width = 60)
writeLines(wrapped_text, "temp_text.txt")
#file.edit("temp_text.txt")

We now have 81 articles, one row per article, with relevant metadata. But the cleaning is not over. Check publication names for standardization.

baltimore |> 
  count(publication) |> 
  arrange(desc(n))

# A tibble: 22 × 2
   publication                                    n
   <chr>                                      <int>
 1 The Baltimore Sun                             38
 2 Targeted News Service                          7
 3 Legal Monitor Worldwide                        6
 4 States News Service                            4
 5 Impact News Service                            3
 6 The Daily Record (Baltimore, MD)               3
 7 CE Noticias Financieras English                2
 8 MENAFN - Business & Finance News (English)     2
 9 MailOnline                                     2
10 manchestereveningnews.co.uk                    2
# ℹ 12 more rows
…
bigrams <- baltimore |> 
  select(text) |> 
  mutate(text = str_squish(text)) |> 
  mutate(text = tolower(text)) |>  
  mutate(text = str_replace_all(text, "- ", "")) |> 
  unnest_tokens(bigram, text, token="ngrams", n=2 ) |> 
  separate(bigram, c("word1", "word2"), sep = " ") |> 
  filter(!word1 %in% stop_words$word) |>
  filter(!word2 %in% stop_words$word) |> 
  count(word1, word2, sort = TRUE) |> 
  filter(!is.na(word1))

bigrams

# A tibble: 8,925 × 3
   word1      word2           n
   <chr>      <chr>       <int>
 1 baltimore  city          104
 2 law        enforcement    79
 3 violent    crime          68
 4 police     department     65
 5 baltimore  police         50
 6 attorney's office         47
 7 u.s        attorney       41
 8 public     safety         40
 9 state's    attorney       40
10 gun        violence       35
# ℹ 8,915 more rows

Top 20 bigrams

top_20_bigrams <- bigrams |> 
  top_n(20) |> 
  mutate(bigram = paste(word1, " ", word2)) |> 
  select(bigram, n)

Selecting by n

top_20_bigrams

# A tibble: 21 × 2
   bigram                  n
   <chr>               <int>
 1 baltimore   city      104
 2 law   enforcement      79
 3 violent   crime        68
 4 police   department    65
 5 baltimore   police     50
 6 attorney's   office    47
 7 u.s   attorney         41
 8 public   safety        40
 9 state's   attorney     40
10 gun   violence         35
# ℹ 11 more rows
…
